[api-updater (non-obsolete-error-filter)] 21.04.2022 17:38:14 : Starting C:/Program Files/Unity/Hub/Editor/2020.2.2f1/Editor/Data/Tools/ScriptUpdater/APIUpdater.NonObsoleteApiUpdaterDetector.exe
[api-updater (non-obsolete-error-filter)] 
----------------------------------
jit/startup time      : 58,0433ms
moved types parse time: 38ms
candidates parse time : 10ms
C# parse time         : 113ms
candidates check time : 23ms
console write time    : 0ms

[api-updater (non-obsolete-error-filter)] 21.04.2022 19:25:55 : Starting C:/Program Files/Unity/Hub/Editor/2020.2.2f1/Editor/Data/Tools/ScriptUpdater/APIUpdater.NonObsoleteApiUpdaterDetector.exe
[api-updater (non-obsolete-error-filter)] 
----------------------------------
jit/startup time      : 56,072ms
moved types parse time: 37ms
candidates parse time : 9ms
C# parse time         : 124ms
candidates check time : 23ms
console write time    : 0ms

[api-updater (non-obsolete-error-filter)] 21.04.2022 23:30:48 : Starting C:/Program Files/Unity/Hub/Editor/2020.2.2f1/Editor/Data/Tools/ScriptUpdater/APIUpdater.NonObsoleteApiUpdaterDetector.exe
[api-updater (non-obsolete-error-filter)] 
----------------------------------
jit/startup time      : 61,0138ms
moved types parse time: 37ms
candidates parse time : 11ms
C# parse time         : 119ms
candidates check time : 24ms
console write time    : 0ms

[api-updater (non-obsolete-error-filter)] 21.04.2022 23:30:53 : Starting C:/Program Files/Unity/Hub/Editor/2020.2.2f1/Editor/Data/Tools/ScriptUpdater/APIUpdater.NonObsoleteApiUpdaterDetector.exe
[api-updater (non-obsolete-error-filter)] 
----------------------------------
jit/startup time      : 50,011ms
moved types parse time: 37ms
candidates parse time : 8ms
C# parse time         : 112ms
candidates check time : 22ms
console write time    : 0ms

[api-updater (non-obsolete-error-filter)] 22.04.2022 12:25:40 : Starting C:/Program Files/Unity/Hub/Editor/2020.2.2f1/Editor/Data/Tools/ScriptUpdater/APIUpdater.NonObsoleteApiUpdaterDetector.exe
[api-updater (non-obsolete-error-filter)] 
----------------------------------
jit/startup time      : 59,0872ms
moved types parse time: 37ms
candidates parse time : 8ms
C# parse time         : 118ms
candidates check time : 24ms
console write time    : 0ms

[api-updater (non-obsolete-error-filter)] 24.04.2022 0:54:33 : Starting C:/Program Files/Unity/Hub/Editor/2020.2.2f1/Editor/Data/Tools/ScriptUpdater/APIUpdater.NonObsoleteApiUpdaterDetector.exe
[api-updater (non-obsolete-error-filter)] 
----------------------------------
jit/startup time      : 80,7618ms
moved types parse time: 37ms
candidates parse time : 30ms
C# parse time         : 152ms
candidates check time : 20ms
console write time    : 0ms

[api-updater (non-obsolete-error-filter)] 24.04.2022 3:13:35 : Starting C:/Program Files/Unity/Hub/Editor/2020.2.2f1/Editor/Data/Tools/ScriptUpdater/APIUpdater.NonObsoleteApiUpdaterDetector.exe
[api-updater (non-obsolete-error-filter)] 
----------------------------------
jit/startup time      : 59,9626ms
moved types parse time: 43ms
candidates parse time : 3ms
C# parse time         : 118ms
candidates check time : 20ms
console write time    : 0ms

[api-updater (non-obsolete-error-filter)] 24.04.2022 17:51:38 : Starting C:/Program Files/Unity/Hub/Editor/2020.2.2f1/Editor/Data/Tools/ScriptUpdater/APIUpdater.NonObsoleteApiUpdaterDetector.exe
[api-updater (non-obsolete-error-filter)] 
----------------------------------
jit/startup time      : 110,1952ms
moved types parse time: 42ms
candidates parse time : 3ms
C# parse time         : 179ms
candidates check time : 30ms
console write time    : 0ms

[api-updater (non-obsolete-error-filter)] 26.04.2022 12:27:03 : Starting C:/Program Files/Unity/Hub/Editor/2020.2.2f1/Editor/Data/Tools/ScriptUpdater/APIUpdater.NonObsoleteApiUpdaterDetector.exe
[api-updater (non-obsolete-error-filter)] 
----------------------------------
jit/startup time      : 101,0444ms
moved types parse time: 41ms
candidates parse time : 8ms
C# parse time         : 127ms
candidates check time : 21ms
console write time    : 0ms

[api-updater (non-obsolete-error-filter)] 28.04.2022 2:08:26 : Starting C:/Program Files/Unity/Hub/Editor/2020.2.2f1/Editor/Data/Tools/ScriptUpdater/APIUpdater.NonObsoleteApiUpdaterDetector.exe
[api-updater (non-obsolete-error-filter)] 
----------------------------------
jit/startup time      : 101,1834ms
moved types parse time: 46ms
candidates parse time : 4ms
C# parse time         : 142ms
candidates check time : 25ms
console write time    : 0ms

